// Sphere radius (m)
r = 0.065;

// Angular width (degrees)
a = 130.;

// Element size (m)
lc = 0.05;
lc1 = lc/10.;

//Electrode radius (m)
er = 0.0025;

// Number of electrodes
nel = 234;

// Spherical inclusion center and radius
Point(80000) = { 0.01, 0.01, 0.045, lc};
dd = 0.010;

//Positions of electrodes
Point(001) = { 0.056292,  0.000000,  0.032500, lc};
Point(002) = { 0.055744,  0.007834,  0.032500, lc};
Point(003) = { 0.054111,  0.015516,  0.032500, lc};
Point(004) = { 0.051425,  0.022896,  0.032500, lc};
Point(005) = { 0.047738,  0.029830,  0.032500, lc};
Point(006) = { 0.043122,  0.036184,  0.032500, lc};
Point(007) = { 0.037666,  0.041833,  0.032500, lc};
Point(008) = { 0.031478,  0.046668,  0.032500, lc};
Point(009) = { 0.024677,  0.050595,  0.032500, lc};
Point(010) = { 0.017395,  0.053537,  0.032500, lc};
Point(011) = { 0.009775,  0.055436,  0.032500, lc};
Point(012) = { 0.001965,  0.056257,  0.032500, lc};
Point(013) = {-0.005884,  0.055983,  0.032500, lc};
Point(014) = {-0.013618,  0.054620,  0.032500, lc};
Point(015) = {-0.021087,  0.052193,  0.032500, lc};
Point(016) = {-0.028146,  0.048750,  0.032500, lc};
Point(017) = {-0.034657,  0.044358,  0.032500, lc};
Point(018) = {-0.040493,  0.039103,  0.032500, lc};
Point(019) = {-0.045541,  0.033087,  0.032500, lc};
Point(020) = {-0.049703,  0.026427,  0.032500, lc};
Point(021) = {-0.052897,  0.019253,  0.032500, lc};
Point(022) = {-0.055062,  0.011704,  0.032500, lc};
Point(023) = {-0.056155,  0.003927,  0.032500, lc};
Point(024) = {-0.056155, -0.003927,  0.032500, lc};
Point(025) = {-0.055062, -0.011704,  0.032500, lc};
Point(026) = {-0.052897, -0.019253,  0.032500, lc};
Point(027) = {-0.049703, -0.026427,  0.032500, lc};
Point(028) = {-0.045541, -0.033087,  0.032500, lc};
Point(029) = {-0.040493, -0.039103,  0.032500, lc};
Point(030) = {-0.034657, -0.044358,  0.032500, lc};
Point(031) = {-0.028146, -0.048750,  0.032500, lc};
Point(032) = {-0.021087, -0.052193,  0.032500, lc};
Point(033) = {-0.013618, -0.054620,  0.032500, lc};
Point(034) = {-0.005884, -0.055983,  0.032500, lc};
Point(035) = { 0.001965, -0.056257,  0.032500, lc};
Point(036) = { 0.009775, -0.055436,  0.032500, lc};
Point(037) = { 0.017395, -0.053537,  0.032500, lc};
Point(038) = { 0.024677, -0.050595,  0.032500, lc};
Point(039) = { 0.031478, -0.046668,  0.032500, lc};
Point(040) = { 0.037666, -0.041833,  0.032500, lc};
Point(041) = { 0.043122, -0.036184,  0.032500, lc};
Point(042) = { 0.047738, -0.029830,  0.032500, lc};
Point(043) = { 0.051425, -0.022896,  0.032500, lc};
Point(044) = { 0.054111, -0.015516,  0.032500, lc};
Point(045) = { 0.055744, -0.007834,  0.032500, lc};
Point(046) = { 0.051911,  0.000000,  0.039118, lc};
Point(047) = { 0.051303,  0.007924,  0.039118, lc};
Point(048) = { 0.049492,  0.015663,  0.039118, lc};
Point(049) = { 0.046521,  0.023034,  0.039118, lc};
Point(050) = { 0.042460,  0.029866,  0.039118, lc};
Point(051) = { 0.037403,  0.035997,  0.039118, lc};
Point(052) = { 0.031470,  0.041285,  0.039118, lc};
Point(053) = { 0.024799,  0.045605,  0.039118, lc};
Point(054) = { 0.017547,  0.048856,  0.039118, lc};
Point(055) = { 0.009883,  0.050962,  0.039118, lc};
Point(056) = { 0.001988,  0.051873,  0.039118, lc};
Point(057) = {-0.005953,  0.051569,  0.039118, lc};
Point(058) = {-0.013756,  0.050056,  0.039118, lc};
Point(059) = {-0.021235,  0.047369,  0.039118, lc};
Point(060) = {-0.028217,  0.043573,  0.039118, lc};
Point(061) = {-0.034538,  0.038755,  0.039118, lc};
Point(062) = {-0.040049,  0.033028,  0.039118, lc};
Point(063) = {-0.044621,  0.026528,  0.039118, lc};
Point(064) = {-0.048148,  0.019405,  0.039118, lc};
Point(065) = {-0.050546,  0.011828,  0.039118, lc};
Point(066) = {-0.051759,  0.003974,  0.039118, lc};
Point(067) = {-0.051759, -0.003974,  0.039118, lc};
Point(068) = {-0.050546, -0.011828,  0.039118, lc};
Point(069) = {-0.048148, -0.019405,  0.039118, lc};
Point(070) = {-0.044621, -0.026528,  0.039118, lc};
Point(071) = {-0.040049, -0.033028,  0.039118, lc};
Point(072) = {-0.034538, -0.038755,  0.039118, lc};
Point(073) = {-0.028217, -0.043573,  0.039118, lc};
Point(074) = {-0.021235, -0.047369,  0.039118, lc};
Point(075) = {-0.013756, -0.050056,  0.039118, lc};
Point(076) = {-0.005953, -0.051569,  0.039118, lc};
Point(077) = { 0.001988, -0.051873,  0.039118, lc};
Point(078) = { 0.009883, -0.050962,  0.039118, lc};
Point(079) = { 0.017547, -0.048856,  0.039118, lc};
Point(080) = { 0.024799, -0.045605,  0.039118, lc};
Point(081) = { 0.031470, -0.041285,  0.039118, lc};
Point(082) = { 0.037403, -0.035997,  0.039118, lc};
Point(083) = { 0.042460, -0.029866,  0.039118, lc};
Point(084) = { 0.046521, -0.023034,  0.039118, lc};
Point(085) = { 0.049492, -0.015663,  0.039118, lc};
Point(086) = { 0.051303, -0.007924,  0.039118, lc};
Point(087) = { 0.046757,  0.000000,  0.045153, lc};
Point(088) = { 0.046085,  0.007902,  0.045153, lc};
Point(089) = { 0.044086,  0.015577,  0.045153, lc};
Point(090) = { 0.040820,  0.022803,  0.045153, lc};
Point(091) = { 0.036379,  0.029374,  0.045153, lc};
Point(092) = { 0.030891,  0.035099,  0.045153, lc};
Point(093) = { 0.024515,  0.039815,  0.045153, lc};
Point(094) = { 0.017434,  0.043385,  0.045153, lc};
Point(095) = { 0.009851,  0.045708,  0.045153, lc};
Point(096) = { 0.001984,  0.046715,  0.045153, lc};
Point(097) = {-0.005939,  0.046378,  0.045153, lc};
Point(098) = {-0.013692,  0.044708,  0.045153, lc};
Point(099) = {-0.021050,  0.041751,  0.045153, lc};
Point(100) = {-0.027803,  0.037593,  0.045153, lc};
Point(101) = {-0.033757,  0.032353,  0.045153, lc};
Point(102) = {-0.038739,  0.026183,  0.045153, lc};
Point(103) = {-0.042606,  0.019259,  0.045153, lc};
Point(104) = {-0.045248,  0.011782,  0.045153, lc};
Point(105) = {-0.046589,  0.003965,  0.045153, lc};
Point(106) = {-0.046589, -0.003965,  0.045153, lc};
Point(107) = {-0.045248, -0.011782,  0.045153, lc};
Point(108) = {-0.042606, -0.019259,  0.045153, lc};
Point(109) = {-0.038739, -0.026183,  0.045153, lc};
Point(110) = {-0.033757, -0.032353,  0.045153, lc};
Point(111) = {-0.027803, -0.037593,  0.045153, lc};
Point(112) = {-0.021050, -0.041751,  0.045153, lc};
Point(113) = {-0.013692, -0.044708,  0.045153, lc};
Point(114) = {-0.005939, -0.046378,  0.045153, lc};
Point(115) = { 0.001984, -0.046715,  0.045153, lc};
Point(116) = { 0.009851, -0.045708,  0.045153, lc};
Point(117) = { 0.017434, -0.043385,  0.045153, lc};
Point(118) = { 0.024515, -0.039815,  0.045153, lc};
Point(119) = { 0.030891, -0.035099,  0.045153, lc};
Point(120) = { 0.036379, -0.029374,  0.045153, lc};
Point(121) = { 0.040820, -0.022803,  0.045153, lc};
Point(122) = { 0.044086, -0.015577,  0.045153, lc};
Point(123) = { 0.046085, -0.007902,  0.045153, lc};
Point(124) = { 0.040906,  0.000000,  0.050514, lc};
Point(125) = { 0.040120,  0.007980,  0.050514, lc};
Point(126) = { 0.037792,  0.015654,  0.050514, lc};
Point(127) = { 0.034012,  0.022726,  0.050514, lc};
Point(128) = { 0.028925,  0.028925,  0.050514, lc};
Point(129) = { 0.022726,  0.034012,  0.050514, lc};
Point(130) = { 0.015654,  0.037792,  0.050514, lc};
Point(131) = { 0.007980,  0.040120,  0.050514, lc};
Point(132) = { 0.000000,  0.040906,  0.050514, lc};
Point(133) = {-0.007980,  0.040120,  0.050514, lc};
Point(134) = {-0.015654,  0.037792,  0.050514, lc};
Point(135) = {-0.022726,  0.034012,  0.050514, lc};
Point(136) = {-0.028925,  0.028925,  0.050514, lc};
Point(137) = {-0.034012,  0.022726,  0.050514, lc};
Point(138) = {-0.037792,  0.015654,  0.050514, lc};
Point(139) = {-0.040120,  0.007980,  0.050514, lc};
Point(140) = {-0.040906,  0.000000,  0.050514, lc};
Point(141) = {-0.040120, -0.007980,  0.050514, lc};
Point(142) = {-0.037792, -0.015654,  0.050514, lc};
Point(143) = {-0.034012, -0.022726,  0.050514, lc};
Point(144) = {-0.028925, -0.028925,  0.050514, lc};
Point(145) = {-0.022726, -0.034012,  0.050514, lc};
Point(146) = {-0.015654, -0.037792,  0.050514, lc};
Point(147) = {-0.007980, -0.040120,  0.050514, lc};
Point(148) = {-0.000000, -0.040906,  0.050514, lc};
Point(149) = { 0.007980, -0.040120,  0.050514, lc};
Point(150) = { 0.015654, -0.037792,  0.050514, lc};
Point(151) = { 0.022726, -0.034012,  0.050514, lc};
Point(152) = { 0.028925, -0.028925,  0.050514, lc};
Point(153) = { 0.034012, -0.022726,  0.050514, lc};
Point(154) = { 0.037792, -0.015654,  0.050514, lc};
Point(155) = { 0.040120, -0.007980,  0.050514, lc};
Point(156) = { 0.034445,  0.000000,  0.055123, lc};
Point(157) = { 0.033516,  0.007944,  0.055123, lc};
Point(158) = { 0.030781,  0.015459,  0.055123, lc};
Point(159) = { 0.026386,  0.022141,  0.055123, lc};
Point(160) = { 0.020569,  0.027629,  0.055123, lc};
Point(161) = { 0.013643,  0.031628,  0.055123, lc};
Point(162) = { 0.005981,  0.033921,  0.055123, lc};
Point(163) = {-0.002003,  0.034386,  0.055123, lc};
Point(164) = {-0.009879,  0.032998,  0.055123, lc};
Point(165) = {-0.017222,  0.029830,  0.055123, lc};
Point(166) = {-0.023637,  0.025054,  0.055123, lc};
Point(167) = {-0.028778,  0.018928,  0.055123, lc};
Point(168) = {-0.032367,  0.011781,  0.055123, lc};
Point(169) = {-0.034212,  0.003999,  0.055123, lc};
Point(170) = {-0.034212, -0.003999,  0.055123, lc};
Point(171) = {-0.032367, -0.011781,  0.055123, lc};
Point(172) = {-0.028778, -0.018928,  0.055123, lc};
Point(173) = {-0.023637, -0.025054,  0.055123, lc};
Point(174) = {-0.017222, -0.029830,  0.055123, lc};
Point(175) = {-0.009879, -0.032998,  0.055123, lc};
Point(176) = {-0.002003, -0.034386,  0.055123, lc};
Point(177) = { 0.005981, -0.033921,  0.055123, lc};
Point(178) = { 0.013643, -0.031628,  0.055123, lc};
Point(179) = { 0.020569, -0.027629,  0.055123, lc};
Point(180) = { 0.026386, -0.022141,  0.055123, lc};
Point(181) = { 0.030781, -0.015459,  0.055123, lc};
Point(182) = { 0.033516, -0.007944,  0.055123, lc};
Point(183) = { 0.027470,  0.000000,  0.058910, lc};
Point(184) = { 0.026357,  0.007739,  0.058910, lc};
Point(185) = { 0.023109,  0.014852,  0.058910, lc};
Point(186) = { 0.017989,  0.020761,  0.058910, lc};
Point(187) = { 0.011412,  0.024988,  0.058910, lc};
Point(188) = { 0.003909,  0.027191,  0.058910, lc};
Point(189) = {-0.003909,  0.027191,  0.058910, lc};
Point(190) = {-0.011412,  0.024988,  0.058910, lc};
Point(191) = {-0.017989,  0.020761,  0.058910, lc};
Point(192) = {-0.023109,  0.014852,  0.058910, lc};
Point(193) = {-0.026357,  0.007739,  0.058910, lc};
Point(194) = {-0.027470,  0.000000,  0.058910, lc};
Point(195) = {-0.026357, -0.007739,  0.058910, lc};
Point(196) = {-0.023109, -0.014852,  0.058910, lc};
Point(197) = {-0.017989, -0.020761,  0.058910, lc};
Point(198) = {-0.011412, -0.024988,  0.058910, lc};
Point(199) = {-0.003909, -0.027191,  0.058910, lc};
Point(200) = { 0.003909, -0.027191,  0.058910, lc};
Point(201) = { 0.011412, -0.024988,  0.058910, lc};
Point(202) = { 0.017989, -0.020761,  0.058910, lc};
Point(203) = { 0.023109, -0.014852,  0.058910, lc};
Point(204) = { 0.026357, -0.007739,  0.058910, lc};
Point(205) = { 0.020086,  0.000000,  0.061819, lc};
Point(206) = { 0.018557,  0.007687,  0.061819, lc};
Point(207) = { 0.014203,  0.014203,  0.061819, lc};
Point(208) = { 0.007687,  0.018557,  0.061819, lc};
Point(209) = { 0.000000,  0.020086,  0.061819, lc};
Point(210) = {-0.007687,  0.018557,  0.061819, lc};
Point(211) = {-0.014203,  0.014203,  0.061819, lc};
Point(212) = {-0.018557,  0.007687,  0.061819, lc};
Point(213) = {-0.020086,  0.000000,  0.061819, lc};
Point(214) = {-0.018557, -0.007687,  0.061819, lc};
Point(215) = {-0.014203, -0.014203,  0.061819, lc};
Point(216) = {-0.007687, -0.018557,  0.061819, lc};
Point(217) = {-0.000000, -0.020086,  0.061819, lc};
Point(218) = { 0.007687, -0.018557,  0.061819, lc};
Point(219) = { 0.014203, -0.014203,  0.061819, lc};
Point(220) = { 0.018557, -0.007687,  0.061819, lc};
Point(221) = { 0.012403,  0.000000,  0.063806, lc};
Point(222) = { 0.010034,  0.007290,  0.063806, lc};
Point(223) = { 0.003833,  0.011796,  0.063806, lc};
Point(224) = {-0.003833,  0.011796,  0.063806, lc};
Point(225) = {-0.010034,  0.007290,  0.063806, lc};
Point(226) = {-0.012403,  0.000000,  0.063806, lc};
Point(227) = {-0.010034, -0.007290,  0.063806, lc};
Point(228) = {-0.003833, -0.011796,  0.063806, lc};
Point(229) = { 0.003833, -0.011796,  0.063806, lc};
Point(230) = { 0.010034, -0.007290,  0.063806, lc};
Point(231) = { 0.004534,  0.000000,  0.064842, lc};
Point(232) = { 0.000000,  0.004534,  0.064842, lc};
Point(233) = {-0.004534,  0.000000,  0.064842, lc};
Point(234) = {-0.000000, -0.004534,  0.064842, lc};

// Electrode radius (radians)
err = Acos(1.0 - 0.5*(er/r)^2);
er2 = 0.667*er;
err2 = Acos(1.0 - 0.5*(er2/r)^2);
er3 = 0.333*er;
err3 = Acos(1.0 - 0.5*(er3/r)^2);

// Base circle diameter
d = r*Sin(a*Pi/360.);

// Position of the base circle
z =  r*Cos(a*Pi/360.);

// Center
Point(9001) = { 0., 0., 0., lc};

// Base circle center
Point(9002) = { 0., 0., z, lc};

//Base circle points
Point(9003) = { d , 0., z, lc};
Point(9004) = { 0., d , z, lc};
Point(9005) = {-d , 0., z, lc};
Point(9006) = { 0.,-d , z, lc};

// Base circle
Circle(9001) = {9003,9002,9004};
Circle(9002) = {9004,9002,9005};
Circle(9003) = {9005,9002,9006};
Circle(9004) = {9006,9002,9003};

// Spherical surface
Line Loop (9005) = {9001,9002,9003,9004};
Ruled Surface(9001) = {9005} In Sphere {9001};

// Flat bottom
Plane Surface(9002) = {9005};

// Entire boundary
Surface Loop(9003) = {9001,9002};

// Volume
Volume (9001) = {9003};


//Electrodes - circles
f = r*Cos(err);
f2 = r*Cos(err2);
f3 = r*Cos(err3);

For j In {1 : nel}
  p2[] = Point{j};
  t = Acos(p2[2]/r);
  p = Atan2(p2[1],p2[0]);

  Point(1000+j) = {r*Sin(t-err)*Cos(p),r*Sin(t-err)*Sin(p),r*Cos(t-err),lc};
  p3[0] = r*Sin(t+err)*Cos(p);
  p3[1] = r*Sin(t+err)*Sin(p);
  p3[2] = r*Cos(t+err);
  For i In {0 : 2}
    ex[i] = p2[i]/r;
  EndFor
  di = ex[0]*p3[0] + ex[1]*p3[1] + ex[2]*p3[2];
  For i In {0 : 2}
    ey[i] = (p3[i] - di*ex[i]);
  EndFor
  aux = Sqrt(ey[0]^2 + ey[1]^2 + ey[2]^2);
  For i In {0 : 2}
    ey[i] = ey[i]/aux;
  EndFor
  ez[0] = ex[1]*ey[2] - ex[2]*ey[1];
  ez[1] = ex[2]*ey[0] - ex[0]*ey[2];
  ez[2] = ex[0]*ey[1] - ex[1]*ey[0];
  dj = ey[0]*p3[0] + ey[1]*p3[1] + ey[2]*p3[2];
  x = r - 0.5*er^2/r;
  y = (r^2 - er^2 - x^2 + (x-di)^2 + dj^2)/(2.*dj);
  z = Sqrt(r^2 - x^2 - y^2);
  For i In {0 : 2}
    p4[i] = x*ex[i] + y*ey[i] + z*ez[i];
    p5[i] = x*ex[i] + y*ey[i] - z*ez[i];
  EndFor
  Point(2000+j) = {p4[0],p4[1],p4[2],lc};
  Point(3000+j) = {p5[0],p5[1],p5[2],lc};
  Point(4000+j) = {f*Sin(t)*Cos(p),f*Sin(t)*Sin(p),f*Cos(t),lc};

  Point(5000+j) = {r*Sin(t+err2)*Cos(p),r*Sin(t+err2)*Sin(p),r*Cos(t+err2),lc};
  p3[0] = r*Sin(t-err2)*Cos(p);
  p3[1] = r*Sin(t-err2)*Sin(p);
  p3[2] = r*Cos(t-err2);
  For i In {0 : 2}
    ex[i] = p2[i]/r;
  EndFor
  di = ex[0]*p3[0] + ex[1]*p3[1] + ex[2]*p3[2];
  For i In {0 : 2}
    ey[i] = (p3[i] - di*ex[i]);
  EndFor
  aux = Sqrt(ey[0]^2 + ey[1]^2 + ey[2]^2);
  For i In {0 : 2}
    ey[i] = ey[i]/aux;
  EndFor
  ez[0] = ex[1]*ey[2] - ex[2]*ey[1];
  ez[1] = ex[2]*ey[0] - ex[0]*ey[2];
  ez[2] = ex[0]*ey[1] - ex[1]*ey[0];
  dj = ey[0]*p3[0] + ey[1]*p3[1] + ey[2]*p3[2];
  x = r - 0.5*er2^2/r;
  y = (r^2 - er2^2 - x^2 + (x-di)^2 + dj^2)/(2.*dj);
  z = Sqrt(r^2 - x^2 - y^2);
  For i In {0 : 2}
    p4[i] = x*ex[i] + y*ey[i] + z*ez[i];
    p5[i] = x*ex[i] + y*ey[i] - z*ez[i];
  EndFor
  Point(6000+j) = {p4[0],p4[1],p4[2],lc};
  Point(7000+j) = {p5[0],p5[1],p5[2],lc};
  Point(8000+j) = {f2*Sin(t)*Cos(p),f2*Sin(t)*Sin(p),f2*Cos(t),lc};

  Point(11000+j) = {r*Sin(t-err3)*Cos(p),r*Sin(t-err3)*Sin(p),r*Cos(t-err3),lc};
  p3[0] = r*Sin(t+err3)*Cos(p);
  p3[1] = r*Sin(t+err3)*Sin(p);
  p3[2] = r*Cos(t+err3);
  For i In {0 : 2}
    ex[i] = p2[i]/r;
  EndFor
  di = ex[0]*p3[0] + ex[1]*p3[1] + ex[2]*p3[2];
  For i In {0 : 2}
    ey[i] = (p3[i] - di*ex[i]);
  EndFor
  aux = Sqrt(ey[0]^2 + ey[1]^2 + ey[2]^2);
  For i In {0 : 2}
    ey[i] = ey[i]/aux;
  EndFor
  ez[0] = ex[1]*ey[2] - ex[2]*ey[1];
  ez[1] = ex[2]*ey[0] - ex[0]*ey[2];
  ez[2] = ex[0]*ey[1] - ex[1]*ey[0];
  dj = ey[0]*p3[0] + ey[1]*p3[1] + ey[2]*p3[2];
  x = r - 0.5*er3^2/r;
  y = (r^2 - er3^2 - x^2 + (x-di)^2 + dj^2)/(2.*dj);
  z = Sqrt(r^2 - x^2 - y^2);
  For i In {0 : 2}
    p4[i] = x*ex[i] + y*ey[i] + z*ez[i];
    p5[i] = x*ex[i] + y*ey[i] - z*ez[i];
  EndFor
  Point(12000+j) = {p4[0],p4[1],p4[2],lc};
  Point(13000+j) = {p5[0],p5[1],p5[2],lc};
  Point(14000+j) = {f3*Sin(t)*Cos(p),f3*Sin(t)*Sin(p),f3*Cos(t),lc};

  Circle(1000+j) = {1000+j,4000+j,2000+j};
  Circle(2000+j) = {2000+j,4000+j,3000+j};
  Circle(3000+j) = {3000+j,4000+j,1000+j};
  Circle(4000+j) = {5000+j,8000+j,6000+j};
  Circle(5000+j) = {6000+j,8000+j,7000+j};
  Circle(6000+j) = {7000+j,8000+j,5000+j};
  Circle(11000+j) = {11000+j,14000+j,12000+j};
  Circle(12000+j) = {12000+j,14000+j,13000+j};
  Circle(13000+j) = {13000+j,14000+j,11000+j};

  Point {j} In Surface {9001};
  Point {1000+j} In Surface {9001};
  Point {2000+j} In Surface {9001};
  Point {3000+j} In Surface {9001};
  Point {5000+j} In Surface {9001};
  Point {6000+j} In Surface {9001};
  Point {7000+j} In Surface {9001};
  Point {11000+j} In Surface {9001};
  Point {12000+j} In Surface {9001};
  Point {13000+j} In Surface {9001};
  Line {1000+j} In Surface {9001};
  Line {2000+j} In Surface {9001};
  Line {3000+j} In Surface {9001};
  Line {4000+j} In Surface {9001};
  Line {5000+j} In Surface {9001};
  Line {6000+j} In Surface {9001};
  Line {11000+j} In Surface {9001};
  Line {12000+j} In Surface {9001};
  Line {13000+j} In Surface {9001};

  Physical Point (j) = {j};
EndFor

// Spherical inclusion

//Base circle points
p[] = Point{80000};
Point(80001) = { p[0]+dd, p[1]   , p[2]   , lc};
Point(80002) = { p[0]-dd, p[1]   , p[2]   , lc};
Point(80003) = { p[0]   , p[1]+dd, p[2]   , lc};
Point(80004) = { p[0]   , p[1]-dd, p[2]   , lc};
Point(80005) = { p[0]   , p[1]   , p[2]+dd, lc};
Point(80006) = { p[0]   , p[1]   , p[2]-dd, lc};

// Base circle
Circle(80001) = {80001,80000,80004};
Circle(80002) = {80004,80000,80002};
Circle(80003) = {80002,80000,80003};
Circle(80004) = {80003,80000,80001};
Circle(80005) = {80001,80000,80006};
Circle(80006) = {80006,80000,80002};
Circle(80007) = {80002,80000,80005};
Circle(80008) = {80005,80000,80001};

// Spherical surface
Line Loop (80011) = { 80001, 80002,-80006,-80005};
Line Loop (80012) = { 80003, 80004, 80005, 80006};
Line Loop (80013) = { 80001, 80002, 80007, 80008};
Line Loop (80014) = { 80003, 80004,-80008,-80007};

Ruled Surface(80001) = {80011} In Sphere {80000};
Ruled Surface(80002) = {80012} In Sphere {80000};
Ruled Surface(80003) = {80013} In Sphere {80000};
Ruled Surface(80004) = {80014} In Sphere {80000};
Surface {80001} In Volume {9001};
Surface {80002} In Volume {9001};
Surface {80003} In Volume {9001};
Surface {80004} In Volume {9001};

Physical Volume (Sprintf("%f", er)) = {9001};

Field[1] = Attractor;
Field[1].NodesList = {1:nel};

Field[2] = Threshold;
Field[2].IField = 1;
Field[2].LcMin = lc1;
Field[2].LcMax = lc;
Field[2].DistMin = 1*er;
Field[2].DistMax = 2*er;

//p[] = Point{80000};
//Field[3] = Ball;
//Field[3].Radius = 0.8*dd;
//Field[3].XCenter = p[0];
//Field[3].YCenter = p[1];
//Field[3].ZCenter = p[2];
//Field[3].VIn  = lc-0.5*lc1;
//Field[3].VOut =    0.5*lc1;

//Field[4] = Ball;
//Field[4].Radius = 1.2*dd;
//Field[4].XCenter = p[0];
//Field[4].YCenter = p[1];
//Field[4].ZCenter = p[2];
//Field[4].VIn  =      0.5*lc1;
//Field[4].VOut = lc - 0.5*lc1;

//Field[5] = MathEval;
//Field[5].F = "Field[3] + Field[4]";

//Field[6] = Min;
//Field[6].FieldsList = {2,5};


Background Field = 2;

